<svg xmlns="http://www.w3.org/2000/svg" viewBox="0 0 170.079 19.843">
  <path d="M0 0v19.843h61.054V0H0zm8.539 4.108h7.154l1.4 3.785.925-3.785h5.737s-.492 2.8-2.933 4.447c-.527.355-1.145.609-1.817.606H7.541l.998-5.053zm2.689 11.922H6.23l1.06-5.753h4.91l-.972 5.753zm10.331 0h-6.463l-1.869-5.753h9.581l-1.249 5.753zm12.953-.019H22.99c.002-.037.003-.073.007-.111.454-4.277 4.542-4.92 4.542-4.92h10.219c-.475 4.209-2.604 4.872-3.246 5.031zm2.074-8.118s.737-.142 1.181.681c.135.25.083 1.25.083 1.25H23.887s.098-1.232.151-1.931c.106-1.384.643-3.785 1.987-3.785h11.998l-.53 2.725h-8.138l-.378 1.06h7.609zm16.104 8.118H39.945s-1.419-.326-1.334-1.859.341-3.172.341-3.172h14.761l-1.023 5.031zm.398-8.232h-8.687l-.454 2.045h-4.769s.283-2.844.568-3.748c.483-1.533 1.533-1.968 1.533-1.968h12.604l-.795 3.671z" fill="#32406D"/>
  <path d="M69.758 6.679l.22 1.001h.066l.176-1.034 1.155-3.366h1.551L70.88 8.604c-.161.418-.317.781-.467 1.089-.15.308-.312.563-.484.765s-.365.352-.577.451c-.213.099-.462.149-.748.149-.242 0-.438-.017-.588-.05-.15-.033-.314-.105-.49-.215l.385-1.221c.125.066.238.106.341.121.103.015.212.022.33.022.344 0 .586-.271.726-.814L66.426 3.28h1.771l1.561 3.399zm4.775-3.322c.308-.059.647-.104 1.018-.138.37-.033.738-.049 1.105-.049.381 0 .764.031 1.149.094.385.062.731.187 1.04.374.308.187.559.447.753.781.194.334.292.768.292 1.304 0 .484-.084.893-.253 1.226-.169.334-.393.607-.671.82-.278.213-.596.367-.951.462-.356.095-.725.143-1.105.143h-.176s-.165-.002-.253-.005c-.088-.004-.174-.009-.258-.017-.084-.007-.145-.015-.182-.022v2.651h-1.507V3.357zm2.243 1.11c-.146 0-.286.006-.418.017-.132.011-.238.024-.319.039V7.02c.029.007.073.015.132.022s.121.013.187.017.13.005.193.005h.137c.198 0 .394-.018.588-.055.194-.037.369-.104.522-.203.154-.099.277-.237.369-.413.092-.176.138-.407.138-.693 0-.242-.044-.442-.132-.6-.088-.158-.203-.284-.346-.379s-.306-.162-.49-.198c-.183-.037-.37-.056-.561-.056zm8.096 4.808h-2.365l-.583 1.706h-1.507l2.772-7.755H84.3l2.773 7.755h-1.584l-.617-1.706zm-1.979-1.21h1.65l-.572-1.716-.231-1.21h-.055l-.231 1.221-.561 1.705zm9.679-3.443h-1.639c-.029.697-.063 1.331-.099 1.903-.037.572-.087 1.087-.148 1.545-.063.458-.146.864-.248 1.216s-.234.656-.396.913c-.104.168-.219.308-.347.418-.129.11-.263.198-.401.264-.14.066-.277.112-.413.138s-.262.039-.379.039c-.169 0-.311-.014-.424-.039s-.226-.064-.335-.116l.165-1.298c.044.015.088.026.132.033s.088.011.132.011c.117 0 .232-.029.347-.088.113-.059.21-.158.291-.297.11-.162.205-.398.286-.709.081-.312.152-.709.215-1.194.062-.484.111-1.062.148-1.732.036-.671.062-1.454.077-2.349h4.543v7.701h-1.508V4.622zm3.927-1.343h4.741v1.342h-3.234v1.606c.125-.022.276-.044.456-.066.18-.022.358-.033.534-.033.41 0 .788.041 1.133.121s.64.214.886.401c.245.187.438.433.577.737s.209.676.209 1.116c0 .433-.071.811-.215 1.133-.143.323-.348.59-.615.803-.269.213-.591.374-.969.484-.377.11-.801.165-1.271.165-.124 0-.28-.003-.467-.011-.188-.007-.386-.019-.595-.033s-.416-.032-.621-.055-.389-.051-.55-.088V3.279zm2.343 6.546c.19 0 .368-.023.533-.07s.311-.119.435-.216c.125-.097.224-.221.297-.373s.11-.335.11-.551c0-.259-.04-.468-.121-.626-.081-.159-.19-.283-.33-.373-.139-.09-.299-.149-.479-.178-.18-.029-.372-.043-.577-.043-.103 0-.231.009-.385.027-.154.018-.261.034-.319.049v2.301c.081.021.203.036.368.043.165.006.321.01.468.01zm5.027-6.468c.308-.059.646-.104 1.018-.138.37-.033.738-.049 1.105-.049.381 0 .765.031 1.149.094.385.062.731.187 1.039.374.309.187.56.447.754.781.194.334.291.768.291 1.304 0 .484-.084.893-.253 1.226-.168.334-.392.607-.671.82-.278.213-.596.367-.951.462s-.725.143-1.105.143h-.176c-.081 0-.165-.002-.253-.005-.089-.004-.175-.009-.259-.017-.085-.007-.146-.015-.182-.022v2.651h-1.507V3.357zm2.244 1.11c-.147 0-.286.006-.418.017-.133.011-.238.024-.319.039V7.02c.029.007.073.015.132.022s.121.013.188.017c.065.004.13.005.192.005h.138c.197 0 .394-.018.588-.055.194-.037.369-.104.522-.203.154-.099.277-.237.369-.413.091-.176.137-.407.137-.693 0-.242-.044-.442-.132-.6s-.203-.284-.347-.379c-.143-.095-.306-.162-.489-.198s-.37-.056-.561-.056zm4.785 2.663c0-1.283.282-2.271.847-2.964.565-.693 1.371-1.04 2.42-1.04.551 0 1.03.095 1.441.286.41.19.752.462 1.023.814.271.352.473.774.604 1.265s.198 1.038.198 1.639c0 1.284-.284 2.271-.853 2.964-.568.693-1.373 1.04-2.415 1.04-.557 0-1.041-.095-1.451-.286-.411-.191-.75-.462-1.018-.814-.269-.352-.468-.774-.6-1.265s-.196-1.038-.196-1.639zm1.584 0c0 .389.033.747.099 1.073.066.326.167.607.303.841.136.235.31.418.522.55.213.132.466.198.759.198.536 0 .95-.209 1.243-.627.294-.418.44-1.096.44-2.035 0-.374-.031-.722-.094-1.045s-.159-.605-.291-.847c-.133-.242-.305-.431-.518-.566s-.473-.204-.781-.204c-.535 0-.949.215-1.242.644-.293.428-.44 1.101-.44 2.018zm9.032.561h-.396v3.29h-1.507V3.279h1.507v3.41l.352-.154 2.123-3.256h1.717l-2.244 3.234-.595.418.616.429 2.563 3.62h-1.859l-2.277-3.289zm10.944 2.973c-.234.167-.533.288-.896.361-.363.072-.735.108-1.116.108-.462 0-.9-.071-1.314-.214-.415-.143-.779-.374-1.095-.693s-.566-.733-.754-1.243c-.187-.51-.28-1.127-.28-1.854 0-.755.104-1.388.313-1.897s.48-.92.814-1.232c.333-.312.705-.535 1.116-.671.41-.136.821-.204 1.231-.204.44 0 .813.029 1.117.088.304.059.556.128.753.209l-.297 1.276c-.169-.081-.368-.14-.6-.176-.23-.037-.511-.055-.841-.055-.609 0-1.099.217-1.469.65-.37.434-.556 1.106-.556 2.017 0 .397.044.759.132 1.086.088.327.222.606.401.838s.403.412.671.54.578.193.93.193c.33 0 .608-.033.836-.099s.426-.15.595-.253l.309 1.225zm2.035-7.385h4.564v1.342H136v1.793h2.783v1.342H136v1.881h3.113v1.342h-4.62v-7.7zm6.842.078c.308-.059.646-.104 1.018-.138.37-.033.738-.049 1.105-.049.381 0 .765.031 1.149.094.385.062.731.187 1.039.374.309.187.56.447.754.781.194.334.291.768.291 1.304 0 .484-.084.893-.253 1.226-.168.334-.392.607-.671.82-.278.213-.596.367-.951.462s-.725.143-1.105.143h-.176c-.081 0-.165-.002-.253-.005-.089-.004-.175-.009-.259-.017-.085-.007-.146-.015-.182-.022v2.651h-1.507V3.357zm2.244 1.11c-.147 0-.286.006-.418.017-.133.011-.238.024-.319.039V7.02c.029.007.073.015.132.022s.121.013.188.017c.065.004.13.005.192.005h.138c.197 0 .394-.018.588-.055.194-.037.369-.104.522-.203.154-.099.277-.237.369-.413.091-.176.137-.407.137-.693 0-.242-.044-.442-.132-.6s-.203-.284-.347-.379c-.143-.095-.306-.162-.489-.198s-.371-.056-.561-.056zm10.329.605c0 .191-.023.382-.071.572-.047.191-.126.365-.234.522-.109.158-.252.297-.427.418s-.387.211-.635.27v.066c.22.037.427.099.624.187s.369.209.515.363c.146.154.261.341.345.561.084.22.126.48.126.781 0 .396-.084.739-.253 1.028-.169.29-.395.526-.677.709-.282.184-.604.319-.962.407-.359.088-.73.132-1.111.132h-.479s-.403-.005-.627-.017c-.224-.011-.451-.027-.682-.049-.231-.022-.442-.056-.633-.1v-7.59c.139-.022.299-.044.479-.066s.372-.04.577-.055c.205-.015.416-.025.633-.033.216-.007.431-.011.644-.011.359 0 .709.027 1.051.083.341.055.645.152.912.292.268.14.482.334.644.583.16.251.241.567.241.947zm-3.222 1.442c.103 0 .222-.004.357-.011.136-.007.247-.018.335-.032.279-.087.52-.218.721-.392.202-.174.303-.403.303-.686 0-.189-.037-.345-.11-.468s-.17-.221-.291-.294c-.121-.072-.259-.123-.413-.152-.153-.029-.314-.043-.483-.043-.19 0-.367.004-.528.011-.161.007-.286.018-.374.033v2.036h.483zm.476 3.311c.181 0 .354-.022.524-.065.169-.043.318-.111.448-.202.129-.091.233-.205.313-.343.079-.138.119-.301.119-.49 0-.24-.047-.428-.141-.566-.094-.138-.216-.245-.367-.321-.151-.077-.32-.125-.508-.147-.187-.021-.374-.032-.561-.032h-.789v2.102c.036.015.094.025.173.033.079.007.164.013.254.016.09.004.184.007.28.011.099.002.184.004.255.004zm9.654-3.113l.088-1.001h-.056l-.517 1.034-2.871 4.235h-1.133V3.279h1.507V7.47l-.11 1.034h.066l.539-1.067 2.871-4.158h1.122v7.701h-1.507V6.712zm9.152 3.952c-.234.167-.533.288-.896.361-.363.072-.735.108-1.116.108-.462 0-.9-.071-1.314-.214-.415-.143-.779-.374-1.095-.693s-.566-.733-.754-1.243c-.187-.51-.28-1.127-.28-1.854 0-.755.104-1.388.313-1.897s.48-.92.814-1.232c.333-.312.705-.535 1.116-.671.41-.136.821-.204 1.231-.204.44 0 .813.029 1.117.088.304.059.556.128.753.209l-.297 1.276c-.169-.081-.368-.14-.6-.176-.23-.037-.511-.055-.841-.055-.609 0-1.099.217-1.469.65-.37.434-.556 1.106-.556 2.017 0 .397.044.759.132 1.086.088.327.222.606.401.838s.403.412.671.54.578.193.93.193c.33 0 .608-.033.836-.099s.426-.15.595-.253l.309 1.225zm-98.971 3.56h-1.308v3.756h-.499v-3.756h-1.308v-.444h3.114v.444zm4.652 2.592h-1.541l-.418 1.164h-.498l1.59-4.267h.228l1.596 4.267h-.528l-.429-1.164zm-1.38-.433h1.23l-.466-1.277-.149-.636h-.006l-.149.647-.46 1.266zm8.565-1.223l.06-.63h-.03l-.228.576-1.092 1.896h-.15L80.236 15.1l-.216-.57h-.03l.084.624v2.826h-.468v-4.2h.372l1.314 2.148.198.468h.012l.186-.48 1.254-2.136h.39v4.2h-.498v-2.82zm3.786.72c0-.699.148-1.236.444-1.61s.718-.562 1.266-.562c.296 0 .552.053.769.156.216.104.395.251.536.441.143.189.247.418.315.684s.102.563.102.891c0 .7-.148 1.237-.446 1.611s-.724.561-1.275.561c-.292 0-.545-.052-.759-.155-.214-.104-.393-.251-.534-.441-.142-.189-.247-.418-.314-.684-.07-.267-.104-.564-.104-.892zm.528 0c0 .232.022.452.068.66s.117.392.214.549c.096.158.219.284.368.378.15.095.327.142.531.142.372 0 .664-.142.876-.423.212-.282.318-.718.318-1.306 0-.228-.023-.446-.069-.656s-.118-.395-.216-.553c-.098-.157-.222-.283-.372-.378-.15-.094-.329-.141-.537-.141-.368 0-.657.141-.867.423s-.314.717-.314 1.305zm7.71-2.1h.479v1.956l.258-.084 1.218-1.872h.553l-1.212 1.824-.24.191.3.246 1.338 1.938h-.612l-1.326-1.944h-.276v1.944h-.479v-2.017l-.252.084-1.327 1.934h-.576l1.326-1.878.288-.229-.276-.21-1.254-1.884h.582l1.218 1.884h.271V13.78zm5.64 0h2.286v.444h-1.788v1.374h1.639v.443h-1.639v1.494h1.818v.444h-2.316V13.78zm8.173 2.274h-2.017v1.926h-.498v-4.2h.498v1.83h2.017v-1.83h.498v4.2h-.498v-1.926zm6.473 0h-2.017v1.926h-.498v-4.2h.498v1.83h2.017v-1.83h.498v4.2h-.498v-1.926zm3.96-2.274h.498v1.632c.021-.004.05-.009.09-.015s.084-.011.133-.016c.048-.004.097-.008.146-.012s.099-.006.147-.006c.188 0 .37.019.549.057.178.038.335.105.471.201s.245.226.327.387c.082.162.123.367.123.615 0 .24-.038.449-.114.627-.076.179-.183.324-.321.438-.138.114-.303.199-.494.255-.192.056-.404.084-.637.084-.056 0-.121-.001-.194-.003-.074-.002-.152-.006-.234-.012-.082-.007-.165-.016-.249-.027s-.164-.028-.24-.048V13.78zm.96 3.816c.288 0 .526-.078.714-.234.188-.156.282-.39.282-.702 0-.168-.028-.308-.084-.42s-.131-.201-.225-.267c-.095-.066-.202-.112-.324-.139-.122-.025-.251-.039-.387-.039-.072 0-.152.006-.24.019-.088.012-.154.023-.198.036v1.71c.109.024.262.036.462.036zm2.137-3.816h.497v4.2h-.497v-4.2zm6.527 1.355l.036-.479h-.024l-.258.492-2.028 2.832h-.294v-4.2h.498v2.88l-.042.474h.024l.264-.491 2.028-2.862h.294v4.2h-.498v-2.846zm-1.536-2.376c.016.148.072.263.168.343s.224.12.384.12.287-.04.381-.12c.095-.08.151-.192.172-.336l.432.102c-.044.216-.146.387-.303.513-.158.126-.386.189-.682.189-.284 0-.517-.055-.699-.165-.182-.11-.288-.285-.32-.525l.467-.121zm9.54 1.021h2.28v.444h-1.782v1.26c.068-.012.152-.024.252-.036.101-.012.196-.018.288-.018.204 0 .398.019.582.057s.346.103.486.195c.14.092.251.217.333.375.082.157.123.356.123.597s-.042.447-.126.621-.196.315-.336.426c-.141.11-.304.192-.489.246-.187.054-.381.081-.585.081-.068 0-.146-.001-.231-.003s-.176-.007-.27-.016c-.094-.008-.187-.017-.276-.026s-.173-.025-.249-.045V13.78zm1.086 3.816c.128 0 .25-.019.366-.055s.217-.089.303-.159c.086-.069.154-.158.204-.267s.075-.234.075-.378c0-.184-.029-.333-.087-.447s-.135-.203-.231-.267-.207-.107-.333-.129c-.126-.022-.257-.033-.393-.033-.036 0-.078.002-.126.006l-.144.012c-.049.004-.093.01-.133.016s-.069.011-.09.015v1.65c.028.008.065.014.111.018s.096.008.149.012c.055.005.109.007.165.007.059-.001.113-.001.164-.001zm4.656-3.774c.152-.036.316-.06.492-.072.176-.012.35-.018.522-.018.184 0 .37.018.561.054s.363.103.519.198c.156.096.283.228.382.396.098.168.146.383.146.643 0 .256-.046.472-.138.647-.092.177-.214.319-.366.43-.152.109-.326.188-.521.236-.196.048-.398.072-.606.072h-.099c-.047 0-.095-.001-.145-.003s-.099-.005-.146-.009c-.049-.004-.082-.008-.103-.013v1.597h-.498v-4.158zm1.026.342c-.104 0-.204.002-.3.006-.097.004-.172.015-.229.03v1.74c.021.008.052.013.096.015.045.002.091.004.139.006s.094.003.138.003h.096c.137 0 .271-.013.405-.039.134-.025.255-.072.363-.141.107-.068.195-.164.261-.288.066-.124.099-.282.099-.474 0-.164-.03-.301-.093-.411-.062-.11-.144-.198-.246-.264-.102-.066-.217-.113-.345-.142-.128-.027-.256-.041-.384-.041zm4.494 1.716c0-.699.148-1.236.444-1.61s.718-.562 1.266-.562c.296 0 .552.053.769.156.216.104.395.251.536.441.143.189.247.418.315.684s.102.563.102.891c0 .7-.148 1.237-.446 1.611s-.724.561-1.275.561c-.292 0-.545-.052-.759-.155-.214-.104-.393-.251-.534-.441-.142-.189-.247-.418-.314-.684-.07-.267-.104-.564-.104-.892zm.528 0c0 .232.022.452.068.66s.117.392.214.549c.096.158.219.284.368.378.15.095.327.142.531.142.372 0 .664-.142.876-.423.212-.282.318-.718.318-1.306 0-.228-.023-.446-.069-.656s-.118-.395-.216-.553c-.098-.157-.222-.283-.372-.378-.15-.094-.329-.141-.537-.141-.368 0-.657.141-.867.423s-.314.717-.314 1.305zm6.972.156h-.282v1.944h-.498v-4.2h.498v1.956l.271-.084 1.41-1.872h.575l-1.403 1.806-.252.198.306.24 1.536 1.956h-.63l-1.531-1.944zm5.321-2.256h2.286v.444h-1.788v1.374h1.639v.443h-1.639v1.494h1.818v.444h-2.316V13.78zm5.659.042c.152-.036.316-.06.492-.072.176-.012.35-.018.522-.018.184 0 .37.018.561.054s.363.103.519.198c.156.096.283.228.382.396.098.168.146.383.146.643 0 .256-.046.472-.138.647-.092.177-.214.319-.366.43-.152.109-.326.188-.521.236-.196.048-.398.072-.606.072h-.099c-.047 0-.095-.001-.145-.003s-.099-.005-.146-.009c-.049-.004-.082-.008-.103-.013v1.597h-.498v-4.158zm1.026.342c-.104 0-.204.002-.3.006-.097.004-.172.015-.229.03v1.74c.021.008.052.013.096.015.045.002.091.004.139.006s.094.003.138.003h.096c.137 0 .271-.013.405-.039.134-.025.255-.072.363-.141.107-.068.195-.164.261-.288.066-.124.099-.282.099-.474 0-.164-.03-.301-.093-.411-.062-.11-.144-.198-.246-.264-.102-.066-.217-.113-.345-.142-.128-.027-.256-.041-.384-.041z"/>
</svg>
